xpm_cdc.sv,systemverilog,xil_defaultlib,../../../../../../../../../../../../../../opt/Xilinx/Vivado/2016.4/data/ip/xpm/xpm_cdc/hdl/xpm_cdc.sv,
xpm_memory.sv,systemverilog,xil_defaultlib,../../../../../../../../../../../../../../opt/Xilinx/Vivado/2016.4/data/ip/xpm/xpm_memory/hdl/xpm_memory.sv,
xpm_VCOMP.vhd,vhdl,xpm,../../../../../../../../../../../../../../opt/Xilinx/Vivado/2016.4/data/ip/xpm/xpm_VCOMP.vhd,
blk_mem_gen_v8_3.v,verilog,blk_mem_gen_v8_3_5,../../../ipstatic/simulation/blk_mem_gen_v8_3.v,
ram_32b.v,verilog,xil_defaultlib,../../../../overlay_pcie.srcs/sources_1/ip/ram_32b/sim/ram_32b.v,
glbl.v,Verilog,xil_defaultlib,glbl.v
