\relax 
\providecommand\hyper@newdestlabel[2]{}
\catcode `:\active 
\catcode `;\active 
\catcode `!\active 
\catcode `?\active 
\providecommand\HyperFirstAtBeginDocument{\AtBeginDocument}
\HyperFirstAtBeginDocument{\ifx\hyper@anchor\@undefined
\global\let\oldcontentsline\contentsline
\gdef\contentsline#1#2#3#4{\oldcontentsline{#1}{#2}{#3}}
\global\let\oldnewlabel\newlabel
\gdef\newlabel#1#2{\newlabelxx{#1}#2}
\gdef\newlabelxx#1#2#3#4#5#6{\oldnewlabel{#1}{{#2}{#3}}}
\AtEndDocument{\ifx\hyper@anchor\@undefined
\let\contentsline\oldcontentsline
\let\newlabel\oldnewlabel
\fi}
\fi}
\global\let\hyper@last\relax 
\gdef\HyperFirstAtBeginDocument#1{#1}
\providecommand\HyField@AuxAddToFields[1]{}
\providecommand\HyField@AuxAddToCoFields[2]{}
\select@language{french}
\@writefile{toc}{\select@language{french}}
\@writefile{lof}{\select@language{french}}
\@writefile{lot}{\select@language{french}}
\@writefile{toc}{\contentsline {section}{\numberline {1}Cahier des charges}{2}{section.1}}
\@writefile{toc}{\contentsline {subsection}{\numberline {1.1}R\IeC {\'e}sum\IeC {\'e} du probl\IeC {\`e}me}{2}{subsection.1.1}}
\@writefile{toc}{\contentsline {subsection}{\numberline {1.2}Cahier des charges}{2}{subsection.1.2}}
\citation{Moore law}
\citation{Parallel Computing with FPGAs}
\citation{High Perf Ovly}
\@writefile{toc}{\contentsline {section}{\numberline {2}Introduction}{5}{section.2}}
\citation{end moore}
\citation{end moore}
\citation{soc FPGA}
\citation{soc FPGA}
\@writefile{lof}{\contentsline {figure}{\numberline {1}{\ignorespaces  Fin de la loi de Moore \cite  {end moore}\relax }}{6}{figure.caption.2}}
\providecommand*\caption@xref[2]{\@setref\relax\@undefined{#1}}
\newlabel{moore}{{1}{6}{Fin de la loi de Moore \cite {end moore}\relax }{figure.caption.2}{}}
\@writefile{lof}{\contentsline {figure}{\numberline {2}{\ignorespaces  Sch\IeC {\'e}ma d'une SoC FPGA \cite  {soc FPGA}\relax }}{7}{figure.caption.3}}
\newlabel{soc fpga}{{2}{7}{Schéma d'une SoC FPGA \cite {soc FPGA}\relax }{figure.caption.3}{}}
\citation{High Perf Ovly}
\@writefile{toc}{\contentsline {subsection}{\numberline {2.1}Introduction au fonctionnement de TFA}{8}{subsection.2.1}}
\citation{TFA}
\citation{TFA}
\citation{TFA}
\citation{TFA}
\citation{High Perf Ovly}
\citation{High Perf Ovly}
\citation{TFA}
\citation{TFA}
\@writefile{lof}{\contentsline {figure}{\numberline {3}{\ignorespaces Overlay Configur\IeC {\'e}e \cite  {TFA}\relax }}{10}{figure.caption.4}}
\newlabel{Overlay}{{3}{10}{Overlay Configurée \cite {TFA}\relax }{figure.caption.4}{}}
\@writefile{lof}{\contentsline {figure}{\numberline {4}{\ignorespaces Sch\IeC {\'e}ma d'un DFG \cite  {TFA}\relax }}{10}{figure.caption.4}}
\newlabel{DFG}{{4}{10}{Schéma d'un DFG \cite {TFA}\relax }{figure.caption.4}{}}
\@writefile{lof}{\contentsline {figure}{\numberline {5}{\ignorespaces  Cellue de l'overlay \cite  {High Perf Ovly}\relax }}{10}{figure.caption.5}}
\newlabel{Overlay cell}{{5}{10}{Cellue de l'overlay \cite {High Perf Ovly}\relax }{figure.caption.5}{}}
\citation{High Perf Ovly}
\citation{TFA cst}
\citation{Online Arithm FPGA}
\@writefile{lof}{\contentsline {figure}{\numberline {6}{\ignorespaces  Sch\IeC {\'e}ma du syst\IeC {\`e}me TFA \cite  {TFA}\relax }}{11}{figure.caption.6}}
\newlabel{Schema TFA}{{6}{11}{Schéma du système TFA \cite {TFA}\relax }{figure.caption.6}{}}
\@writefile{toc}{\contentsline {subsection}{\numberline {2.2}Etat initial de l'overlay TFA}{11}{subsection.2.2}}
\@writefile{toc}{\contentsline {subsection}{\numberline {2.3}Objectifs du travail de bachelor}{11}{subsection.2.3}}
\citation{Online hist}
\citation{Online comput}
\citation{Online Arithm FPGA}
\citation{Online comput}
\@writefile{toc}{\contentsline {section}{\numberline {3}Online Arithmetics}{12}{section.3}}
\@writefile{toc}{\contentsline {subsection}{\numberline {3.1}Principe g\IeC {\'e}n\IeC {\'e}ral}{12}{subsection.3.1}}
\citation{Online Arithm FPGA}
\citation{Online Arithm FPGA}
\@writefile{lof}{\contentsline {figure}{\numberline {7}{\ignorespaces  Delay d'un algorithme MSB-first \cite  {Online Arithm FPGA}\relax }}{13}{figure.caption.7}}
\newlabel{Delay}{{7}{13}{Delay d'un algorithme MSB-first \cite {Online Arithm FPGA}\relax }{figure.caption.7}{}}
\@writefile{toc}{\contentsline {subsection}{\numberline {3.2}Le format signed digit}{13}{subsection.3.2}}
\citation{On Fly Conv}
\@writefile{lot}{\contentsline {table}{\numberline {1}{\ignorespaces Conversion code binaire - signed digit value\relax }}{14}{table.1}}
\newlabel{sd representation}{{1}{14}{Conversion code binaire - signed digit value\relax }{table.1}{}}
\@writefile{toc}{\contentsline {subsubsection}{\numberline {3.2.1}Conversion entier en SD}{14}{subsubsection.3.2.1}}
\newlabel{Conversion entier en SD}{{3.2.1}{14}{Conversion entier en SD}{subsubsection.3.2.1}{}}
\@writefile{lot}{\contentsline {table}{\numberline {2}{\ignorespaces Exemple de conversion integer en signed digit\relax }}{14}{table.2}}
\newlabel{conv int to sd}{{2}{14}{Exemple de conversion integer en signed digit\relax }{table.2}{}}
\@writefile{toc}{\contentsline {subsubsection}{\numberline {3.2.2}Conversion SD en entier}{14}{subsubsection.3.2.2}}
\newlabel{on fly conv}{{3.2.2}{14}{Conversion SD en entier}{subsubsection.3.2.2}{}}
\@writefile{lot}{\contentsline {table}{\numberline {3}{\ignorespaces Exemple de conversions (4bits)\relax }}{15}{table.3}}
\citation{Arithmetics}
\citation{Arithmetics}
\citation{Arithmetics}
\citation{Arithmetics}
\citation{Arithmetics}
\newlabel{ex conv}{{3}{16}{Exemple de conversions (4bits)\relax }{table.3}{}}
\@writefile{lof}{\contentsline {figure}{\numberline {8}{\ignorespaces Schema bloc d'un convertisseur on-the-fly \cite  {Arithmetics}\relax }}{16}{figure.caption.8}}
\newlabel{on-the-fly conv}{{8}{16}{Schema bloc d'un convertisseur on-the-fly \cite {Arithmetics}\relax }{figure.caption.8}{}}
\@writefile{toc}{\contentsline {subsection}{\numberline {3.3}Additionneur}{16}{subsection.3.3}}
\@writefile{lof}{\contentsline {figure}{\numberline {9}{\ignorespaces Schema bloc d'un additionneur MSB-First \cite  {Arithmetics}\relax }}{17}{figure.caption.9}}
\newlabel{online Add}{{9}{17}{Schema bloc d'un additionneur MSB-First \cite {Arithmetics}\relax }{figure.caption.9}{}}
\@writefile{lof}{\contentsline {figure}{\numberline {10}{\ignorespaces Table de v\IeC {\'e}rit\IeC {\'e} du Carry Save Adder \relax }}{18}{figure.caption.10}}
\newlabel{csa}{{10}{18}{Table de vérité du Carry Save Adder \relax }{figure.caption.10}{}}
\citation{Arithmetics}
\citation{Online Arithm FPGA}
\citation{Arithmetics}
\citation{Arithmetics}
\@writefile{toc}{\contentsline {subsection}{\numberline {3.4}Multiplicateur}{19}{subsection.3.4}}
\@writefile{lof}{\contentsline {figure}{\numberline {11}{\ignorespaces Algorithme pour la multiplication MSB-First \cite  {Arithmetics}\relax }}{20}{figure.caption.11}}
\newlabel{Algo mult}{{11}{20}{Algorithme pour la multiplication MSB-First \cite {Arithmetics}\relax }{figure.caption.11}{}}
\citation{OnlineArithm FPGA}
\citation{OnlineArithm FPGA}
\@writefile{lof}{\contentsline {figure}{\numberline {12}{\ignorespaces Sch\IeC {\'e}ma bloc de la multiplication MSB-First\relax }}{21}{figure.caption.12}}
\newlabel{bloc mult}{{12}{21}{Schéma bloc de la multiplication MSB-First\relax }{figure.caption.12}{}}
\@writefile{lof}{\contentsline {figure}{\numberline {13}{\ignorespaces Pr\IeC {\'e}vision des LUTs n\IeC {\'e}cessaire \IeC {\`a} la multplication online \cite  {OnlineArithm FPGA}\relax }}{21}{figure.caption.13}}
\newlabel{LUT online mult}{{13}{21}{Prévision des LUTs nécessaire à la multplication online \cite {OnlineArithm FPGA}\relax }{figure.caption.13}{}}
\citation{Arithmetics}
\citation{Arithmetics}
\citation{Arithmetics}
\@writefile{lot}{\contentsline {table}{\numberline {4}{\ignorespaces Exemple de la multiplication 12x6 (8 bits) en MSB First \relax }}{22}{table.4}}
\newlabel{Ex Mult}{{4}{22}{Exemple de la multiplication 12x6 (8 bits) en MSB First \relax }{table.4}{}}
\@writefile{toc}{\contentsline {subsection}{\numberline {3.5}Diviseur}{22}{subsection.3.5}}
\newlabel{Diviseur}{{3.5}{22}{Diviseur}{subsection.3.5}{}}
\@writefile{lof}{\contentsline {figure}{\numberline {14}{\ignorespaces Algorithme de division MSB first \cite  {Arithmetics}\relax }}{23}{figure.caption.14}}
\newlabel{algo div}{{14}{23}{Algorithme de division MSB first \cite {Arithmetics}\relax }{figure.caption.14}{}}
\@writefile{toc}{\contentsline {subsection}{\numberline {3.6}Comparateurs}{23}{subsection.3.6}}
\newlabel{comp}{{3.6}{23}{Comparateurs}{subsection.3.6}{}}
\@writefile{lot}{\contentsline {table}{\numberline {5}{\ignorespaces Comparaison et comparaison inverse\relax }}{24}{table.5}}
\newlabel{cmp inverse}{{5}{24}{Comparaison et comparaison inverse\relax }{table.5}{}}
\@writefile{lot}{\contentsline {table}{\numberline {6}{\ignorespaces Exemples de comparaisons 4 bits\relax }}{24}{table.6}}
\citation{High Perf Ovly}
\newlabel{ex comp}{{6}{25}{Exemples de comparaisons 4 bits\relax }{table.6}{}}
\@writefile{toc}{\contentsline {section}{\numberline {4}R\IeC {\'e}alisation des convertisseurs et op\IeC {\'e}rateurs}{25}{section.4}}
\newlabel{Real conv op}{{4}{25}{Réalisation des convertisseurs et opérateurs}{section.4}{}}
\@writefile{lot}{\contentsline {table}{\numberline {7}{\ignorespaces Exemple de la repr\IeC {\'e}sentation d'une donn\IeC {\'e}e (8 bits) \IeC {\`a} l'int\IeC {\'e}rieur de l'overlay\relax }}{25}{table.7}}
\newlabel{ex sdr}{{7}{25}{Exemple de la représentation d'une donnée (8 bits) à l'intérieur de l'overlay\relax }{table.7}{}}
\@writefile{toc}{\contentsline {subsection}{\numberline {4.1}M\IeC {\'e}chansmes de synchronisation}{26}{subsection.4.1}}
\newlabel{synchro}{{4.1}{26}{Méchansmes de synchronisation}{subsection.4.1}{}}
\@writefile{toc}{\contentsline {subsection}{\numberline {4.2}Simulation des op\IeC {\'e}rateurs d'online arithmetics}{26}{subsection.4.2}}
\@writefile{toc}{\contentsline {subsection}{\numberline {4.3}Convertisseurs}{26}{subsection.4.3}}
\@writefile{toc}{\contentsline {subsubsection}{\numberline {4.3.1}S\IeC {\'e}rialiseur : convertion entier en SD}{26}{subsubsection.4.3.1}}
\@writefile{lof}{\contentsline {figure}{\numberline {15}{\ignorespaces Schema bloc du s\IeC {\'e}rialiseur\relax }}{27}{figure.caption.15}}
\newlabel{Bloc Serial}{{15}{27}{Schema bloc du sérialiseur\relax }{figure.caption.15}{}}
\@writefile{toc}{\contentsline {subsubsection}{\numberline {4.3.2}D\IeC {\'e}serialisateur : signed digit to integer}{28}{subsubsection.4.3.2}}
\newlabel{deserial}{{4.3.2}{28}{Déserialisateur : signed digit to integer}{subsubsection.4.3.2}{}}
\@writefile{lof}{\contentsline {figure}{\numberline {16}{\ignorespaces  Schema bloc du des\IeC {\'e}rialiseur\relax }}{29}{figure.caption.16}}
\newlabel{Bloc deserial}{{16}{29}{Schema bloc du desérialiseur\relax }{figure.caption.16}{}}
\@writefile{toc}{\contentsline {subsection}{\numberline {4.4}Op\IeC {\'e}rateurs}{29}{subsection.4.4}}
\newlabel{uc operateur}{{4.4}{29}{Opérateurs}{subsection.4.4}{}}
\@writefile{toc}{\contentsline {subsubsection}{\numberline {4.4.1}Additionneur/Soustracteur}{30}{subsubsection.4.4.1}}
\@writefile{toc}{\contentsline {subsubsection}{\numberline {4.4.2}Multiplicateur}{30}{subsubsection.4.4.2}}
\@writefile{toc}{\contentsline {paragraph}{\numberline {4.4.2.1}Multiplication MSB first}{31}{paragraph.4.4.2.1}}
\@writefile{toc}{\contentsline {paragraph}{\numberline {4.4.2.2}Multiplication DSP}{31}{paragraph.4.4.2.2}}
\@writefile{toc}{\contentsline {paragraph}{\numberline {4.4.2.3}Comparaison des deux m\IeC {\'e}thodes}{31}{paragraph.4.4.2.3}}
\@writefile{lot}{\contentsline {table}{\numberline {8}{\ignorespaces Synth\IeC {\`e}se de l'unit\IeC {\'e}e fonctionnelle pour la \textit  {Virtex-7 xc7vx485tffg1761-2}\relax }}{31}{table.8}}
\newlabel{synth mult}{{8}{32}{Synthèse de l'unitée fonctionnelle pour la \textit {Virtex-7 xc7vx485tffg1761-2}\relax }{table.8}{}}
\@writefile{toc}{\contentsline {subsubsection}{\numberline {4.4.3}Comparateurs}{32}{subsubsection.4.4.3}}
\@writefile{toc}{\contentsline {subsubsection}{\numberline {4.4.4}S\IeC {\'e}lecteurs}{32}{subsubsection.4.4.4}}
\@writefile{toc}{\contentsline {subsubsection}{\numberline {4.4.5}Constantes}{33}{subsubsection.4.4.5}}
\@writefile{toc}{\contentsline {subsection}{\numberline {4.5}Verification du design}{33}{subsection.4.5}}
\@writefile{lof}{\contentsline {figure}{\numberline {17}{\ignorespaces  Schema bloc du test bench du s\IeC {\'e}rialiseur-des\IeC {\'e}rialiseur\relax }}{34}{figure.caption.17}}
\newlabel{bench serial deserial}{{17}{34}{Schema bloc du test bench du sérialiseur-desérialiseur\relax }{figure.caption.17}{}}
\@writefile{lof}{\contentsline {figure}{\numberline {18}{\ignorespaces Schema bloc du test bench de l'additionneur\relax }}{35}{figure.caption.18}}
\newlabel{bench add}{{18}{35}{Schema bloc du test bench de l'additionneur\relax }{figure.caption.18}{}}
\@writefile{toc}{\contentsline {section}{\numberline {5}Int\IeC {\'e}gration dans TFA}{35}{section.5}}
\newlabel{integration tfa}{{5}{35}{Intégration dans TFA}{section.5}{}}
\@writefile{toc}{\contentsline {subsection}{\numberline {5.1}Simulation}{36}{subsection.5.1}}
\newlabel{simulation}{{5.1}{36}{Simulation}{subsection.5.1}{}}
\@writefile{toc}{\contentsline {section}{\numberline {6}Benchmarking}{36}{section.6}}
\@writefile{lot}{\contentsline {table}{\numberline {9}{\ignorespaces Synth\IeC {\`e}se des diff\IeC {\'e}rentes parties de mon overlay (32 bits) pour la \textit  {Virtex-7 xc7vx485tffg1761-2}\relax }}{38}{table.9}}
\newlabel{Synth Code}{{9}{38}{Synthèse des différentes parties de mon overlay (32 bits) pour la \textit {Virtex-7 xc7vx485tffg1761-2}\relax }{table.9}{}}
\@writefile{lot}{\contentsline {table}{\numberline {10}{\ignorespaces Synth\IeC {\`e}se de l'unit\IeC {\'e}e fonctionnelle pour la \textit  {Virtex-7 xc7vx485tffg1761-2}\relax }}{38}{table.10}}
\newlabel{Synth FU}{{10}{38}{Synthèse de l'unitée fonctionnelle pour la \textit {Virtex-7 xc7vx485tffg1761-2}\relax }{table.10}{}}
\@writefile{lot}{\contentsline {table}{\numberline {11}{\ignorespaces Synth\IeC {\`e}se d'une cellule sans FU pour la \textit  {Virtex-7 xc7vx485tffg1761-2}\relax }}{38}{table.11}}
\newlabel{cell sans FU}{{11}{38}{Synthèse d'une cellule sans FU pour la \textit {Virtex-7 xc7vx485tffg1761-2}\relax }{table.11}{}}
\@writefile{lot}{\contentsline {table}{\numberline {12}{\ignorespaces Synth\IeC {\`e}se d'une cellule de l'overlay pour la \textit  {Virtex-7 xc7vx485tffg1761-2}\relax }}{39}{table.caption.19}}
\newlabel{Synth Cell}{{12}{39}{Synthèse d'une cellule de l'overlay pour la \textit {Virtex-7 xc7vx485tffg1761-2}\relax }{table.caption.19}{}}
\@writefile{lot}{\contentsline {table}{\numberline {13}{\ignorespaces Synth\IeC {\`e}se d'un overlay complet pour la \textit  {Virtex-7 xc7vx485tffg1761-2}\relax }}{39}{table.caption.20}}
\newlabel{Synth overlay}{{13}{39}{Synthèse d'un overlay complet pour la \textit {Virtex-7 xc7vx485tffg1761-2}\relax }{table.caption.20}{}}
\@writefile{toc}{\contentsline {section}{\numberline {7}Conclusion}{39}{section.7}}
\bibcite{Moore law}{1}
\bibcite{soc FPGA}{2}
\bibcite{Parallel Computing with FPGAs}{3}
\bibcite{end moore}{4}
\bibcite{soc}{5}
\bibcite{TFA}{6}
\bibcite{TFA cst}{7}
\bibcite{High Perf Ovly}{8}
\bibcite{Online Arithm FPGA}{9}
\bibcite{Online comput}{10}
\bibcite{Online hist}{11}
\bibcite{On Fly Conv}{12}
\bibcite{Arithmetics}{13}
\newlabel{LastPage}{{}{41}{}{page.41}{}}
\xdef\lastpage@lastpage{41}
\xdef\lastpage@lastpageHy{41}
