<?xml version="1.0" encoding="UTF-8" standalone="no"?>
<!-- Created with Inkscape (http://www.inkscape.org/) -->

<svg
   xmlns:dc="http://purl.org/dc/elements/1.1/"
   xmlns:cc="http://creativecommons.org/ns#"
   xmlns:rdf="http://www.w3.org/1999/02/22-rdf-syntax-ns#"
   xmlns:svg="http://www.w3.org/2000/svg"
   xmlns="http://www.w3.org/2000/svg"
   xmlns:sodipodi="http://sodipodi.sourceforge.net/DTD/sodipodi-0.dtd"
   xmlns:inkscape="http://www.inkscape.org/namespaces/inkscape"
   width="210mm"
   height="297mm"
   id="svg2"
   version="1.1"
   inkscape:version="0.48.5 r10040"
   sodipodi:docname="Uc_serializer_moore.svg">
  <defs
     id="defs4" />
  <sodipodi:namedview
     id="base"
     pagecolor="#ffffff"
     bordercolor="#666666"
     borderopacity="1.0"
     inkscape:pageopacity="0.0"
     inkscape:pageshadow="2"
     inkscape:zoom="0.7"
     inkscape:cx="450.19941"
     inkscape:cy="630.71037"
     inkscape:document-units="px"
     inkscape:current-layer="layer1"
     showgrid="false"
     showguides="false"
     inkscape:snap-global="false"
     inkscape:window-width="1078"
     inkscape:window-height="997"
     inkscape:window-x="838"
     inkscape:window-y="25"
     inkscape:window-maximized="0">
    <inkscape:grid
       type="xygrid"
       id="grid3024" />
  </sodipodi:namedview>
  <metadata
     id="metadata7">
    <rdf:RDF>
      <cc:Work
         rdf:about="">
        <dc:format>image/svg+xml</dc:format>
        <dc:type
           rdf:resource="http://purl.org/dc/dcmitype/StillImage" />
        <dc:title />
      </cc:Work>
    </rdf:RDF>
  </metadata>
  <g
     inkscape:label="Calque 1"
     inkscape:groupmode="layer"
     id="layer1">
    <rect
       style="fill:#ffffff;stroke:#010000;stroke-width:0.98924434;stroke-linejoin:round;stroke-miterlimit:4;stroke-opacity:1;stroke-dasharray:none"
       id="rect2985"
       width="285.93085"
       height="96.389389"
       x="-367.25116"
       y="609.39679" />
    <text
       xml:space="preserve"
       style="font-size:40px;font-style:normal;font-weight:normal;line-height:125%;letter-spacing:0px;word-spacing:0px;fill:#000000;fill-opacity:1;stroke:none;font-family:Sans"
       x="381.42856"
       y="55.219326"
       id="text2987"
       sodipodi:linespacing="125%"><tspan
         sodipodi:role="line"
         id="tspan2989"
         x="381.42856"
         y="55.219326" /></text>
    <text
       xml:space="preserve"
       style="font-size:14px;font-style:normal;font-weight:normal;line-height:125%;letter-spacing:0px;word-spacing:0px;fill:#000000;fill-opacity:1;stroke:none;font-family:Sans"
       x="952.85712"
       y="70.933609"
       id="text2991"
       sodipodi:linespacing="125%"><tspan
         sodipodi:role="line"
         id="tspan2993"
         x="952.85712"
         y="70.933609" /></text>
    <a
       id="a3013"
       transform="matrix(0.9558556,0,0,0.9157486,144.08002,479.10886)">
      <text
         sodipodi:linespacing="125%"
         id="text2995"
         y="150.93361"
         x="-425.71429"
         style="font-size:12px;font-style:normal;font-weight:normal;line-height:125%;letter-spacing:0px;word-spacing:0px;fill:#000000;fill-opacity:1;stroke:none;font-family:Sans"
         xml:space="preserve"><tspan
           y="150.93361"
           x="-425.71429"
           id="tspan2997"
           sodipodi:role="line">acc_prv = 0</tspan><tspan
           id="tspan2999"
           y="165.93361"
           x="-425.71429"
           sodipodi:role="line">val_nxt = 0</tspan><tspan
           id="tspan3001"
           y="180.93361"
           x="-425.71429"
           sodipodi:role="line">en_lsr =  0</tspan><tspan
           id="tspan3003"
           y="195.93361"
           x="-425.71429"
           sodipodi:role="line">n_load_get = 0</tspan><tspan
           id="tspan3005"
           y="210.93361"
           x="-425.71429"
           sodipodi:role="line">end_of_data = 1</tspan><tspan
           id="tspan3007"
           y="225.93361"
           x="-425.71429"
           sodipodi:role="line">en_cpt =  0</tspan><tspan
           id="tspan3009"
           y="240.93361"
           x="-425.71429"
           sodipodi:role="line">nLoad_cpt = 0 </tspan><tspan
           id="tspan3011"
           y="255.93361"
           x="-425.71429"
           sodipodi:role="line" /></text>
    </a>
    <path
       sodipodi:type="star"
       style="fill:#000000;stroke:#010000;stroke-width:1;stroke-linejoin:round;stroke-miterlimit:4;stroke-opacity:1;stroke-dasharray:none"
       id="path3026"
       sodipodi:sides="3"
       sodipodi:cx="-410"
       sodipodi:cy="353.79074"
       sodipodi:r1="14.285714"
       sodipodi:r2="6.964036"
       sodipodi:arg1="1.5707963"
       sodipodi:arg2="2.654265"
       inkscape:flatsided="false"
       inkscape:rounded="0"
       inkscape:randomized="0"
       d="m -410,368.07646 -6.15333,-11.0247 -6.21846,-10.40388 12.62433,0.18341 12.11925,-0.18341 -6.47099,10.84129 z"
       inkscape:transform-center-y="2.4275168"
       transform="matrix(0.69882934,0,0,0.67970367,41.377479,558.04894)" />
    <path
       transform="matrix(-0.69882934,0,0,-0.67970367,-531.04187,1013.6006)"
       sodipodi:type="star"
       style="fill:#000000;stroke:#010000;stroke-width:1;stroke-linejoin:round;stroke-miterlimit:4;stroke-opacity:1;stroke-dasharray:none"
       id="path3026-3"
       sodipodi:sides="3"
       sodipodi:cx="-410"
       sodipodi:cy="353.79074"
       sodipodi:r1="14.285714"
       sodipodi:r2="6.964036"
       sodipodi:arg1="1.5707963"
       sodipodi:arg2="2.654265"
       inkscape:flatsided="false"
       inkscape:rounded="0"
       inkscape:randomized="0"
       d="m -410,368.07646 -6.15333,-11.0247 -6.21846,-10.40388 12.62433,0.18341 12.11925,-0.18341 -6.47099,10.84129 z"
       inkscape:transform-center-y="-2.4274757" />
    <path
       transform="matrix(0,-0.67970367,0.69882934,0,-464.93606,506.17024)"
       sodipodi:type="star"
       style="fill:#000000;stroke:#010000;stroke-width:1;stroke-linejoin:round;stroke-miterlimit:4;stroke-opacity:1;stroke-dasharray:none"
       id="path3026-3-6"
       sodipodi:sides="3"
       sodipodi:cx="-410"
       sodipodi:cy="353.79074"
       sodipodi:r1="14.285714"
       sodipodi:r2="6.964036"
       sodipodi:arg1="1.5707963"
       sodipodi:arg2="2.654265"
       inkscape:flatsided="false"
       inkscape:rounded="0"
       inkscape:randomized="0"
       d="m -410,368.07646 -6.15333,-11.0247 -6.21846,-10.40388 12.62433,0.18341 12.11925,-0.18341 -6.47099,10.84129 z"
       inkscape:transform-center-x="-2.4958221" />
    <path
       transform="matrix(0,0.67970367,-0.69882934,0,-22.695758,1063.5272)"
       sodipodi:type="star"
       style="fill:#000000;stroke:#010000;stroke-width:1;stroke-linejoin:round;stroke-miterlimit:4;stroke-opacity:1;stroke-dasharray:none"
       id="path3026-3-7"
       sodipodi:sides="3"
       sodipodi:cx="-410"
       sodipodi:cy="353.79074"
       sodipodi:r1="14.285714"
       sodipodi:r2="6.964036"
       sodipodi:arg1="1.5707963"
       sodipodi:arg2="2.654265"
       inkscape:flatsided="false"
       inkscape:rounded="0"
       inkscape:randomized="0"
       d="m -410,368.07646 -6.15333,-11.0247 -6.21846,-10.40388 12.62433,0.18341 12.11925,-0.18341 -6.47099,10.84129 z"
       inkscape:transform-center-x="2.4958189"
       inkscape:transform-center-y="-4.3697329e-05" />
    <rect
       style="fill:#ffffff;stroke:#010000;stroke-width:0.70616436;stroke-linejoin:round;stroke-miterlimit:4;stroke-opacity:1;stroke-dasharray:none"
       id="rect3083"
       width="121.05675"
       height="122.06556"
       x="-496.89954"
       y="591.58868"
       transform="matrix(0.96091833,-0.27683202,0.96091833,0.27683202,0,0)"
       ry="0" />
    <path
       sodipodi:type="arc"
       style="fill:#ffffff;stroke:#010000;stroke-width:1;stroke-linejoin:round;stroke-miterlimit:4;stroke-opacity:1;stroke-dasharray:none"
       id="path3087"
       sodipodi:cx="-411.63718"
       sodipodi:cy="-213.86403"
       sodipodi:rx="59.093925"
       sodipodi:ry="26.769043"
       d="m -352.54325,-213.86403 a 59.093925,26.769043 0 1 1 -118.18785,0 59.093925,26.769043 0 1 1 118.18785,0 z"
       transform="matrix(0.82181822,0,0,0.95983268,544.76249,257.26942)" />
    <text
       xml:space="preserve"
       style="font-size:25.62342644px;font-style:normal;font-weight:normal;line-height:125%;letter-spacing:0px;word-spacing:0px;fill:#000000;fill-opacity:1;stroke:none;font-family:Sans"
       x="215.59818"
       y="52.962433"
       id="text3089"
       sodipodi:linespacing="125%"
       transform="scale(0.85020235,1.1761906)"><tspan
         sodipodi:role="line"
         id="tspan3091"
         x="215.59818"
         y="52.962433">RAZ</tspan></text>
    <rect
       style="fill:#ffffff;stroke:#010000;stroke-width:0.87859601;stroke-linejoin:round;stroke-miterlimit:4;stroke-opacity:1;stroke-dasharray:none"
       id="rect2985-3"
       width="234.98317"
       height="92.517685"
       x="90.325462"
       y="144.03279" />
    <a
       id="a3013-5"
       transform="matrix(0.78553954,0,0,0.87896544,510.54666,18.978201)">
      <text
         sodipodi:linespacing="125%"
         id="text2995-6"
         y="158.12614"
         x="-404.20969"
         style="font-size:11.49360752px;font-style:normal;font-weight:normal;line-height:125%;letter-spacing:0px;word-spacing:0px;fill:#000000;fill-opacity:1;stroke:none;font-family:Sans"
         xml:space="preserve"
         transform="scale(1.0532094,0.9494788)"><tspan
           y="158.12614"
           x="-404.20969"
           id="tspan2997-2"
           sodipodi:role="line">acc_prv = ↑↓</tspan><tspan
           id="tspan2999-9"
           y="172.49315"
           x="-404.20969"
           sodipodi:role="line">val_nxt = 0</tspan><tspan
           id="tspan3001-1"
           y="186.86015"
           x="-404.20969"
           sodipodi:role="line">en_getMsb =  ↑↓</tspan><tspan
           id="tspan3003-2"
           y="201.22717"
           x="-404.20969"
           sodipodi:role="line">n_load_get = 0</tspan><tspan
           id="tspan3005-7"
           y="215.59418"
           x="-404.20969"
           sodipodi:role="line">end_of_data = 1</tspan><tspan
           id="tspan3007-0"
           y="229.96118"
           x="-404.20969"
           sodipodi:role="line">en_cpt =  ↑↓</tspan><tspan
           id="tspan3009-9"
           y="244.3282"
           x="-404.20969"
           sodipodi:role="line">nLoad_cpt = 0 </tspan><tspan
           y="258.69519"
           x="-404.20969"
           sodipodi:role="line"
           id="tspan3140">sel_out = 0</tspan><tspan
           id="tspan3011-3"
           y="273.06219"
           x="-404.20969"
           sodipodi:role="line" /></text>
    </a>
    <text
       xml:space="preserve"
       style="font-size:10.65778351px;font-style:normal;font-weight:normal;line-height:125%;letter-spacing:0px;word-spacing:0px;fill:#000000;fill-opacity:1;stroke:none;font-family:Sans"
       x="194.70503"
       y="279.95001"
       id="text3178"
       sodipodi:linespacing="125%"
       transform="scale(0.92531607,1.0807118)"><tspan
         sodipodi:role="line"
         id="tspan3180"
         x="194.70503"
         y="279.95001">val_prv =? 1</tspan></text>
    <rect
       style="fill:#ffffff;stroke:#010000;stroke-width:0.88853633;stroke-linejoin:round;stroke-miterlimit:4;stroke-opacity:1;stroke-dasharray:none"
       id="rect3083-6"
       width="152.32053"
       height="153.58987"
       x="-713.57178"
       y="356.13983"
       transform="matrix(0.92875422,-0.3706961,0.92875422,0.3706961,0,0)"
       ry="0" />
    <rect
       style="fill:#ffffff;stroke:#010000;stroke-width:0.55321771;stroke-linejoin:round;stroke-miterlimit:4;stroke-opacity:1;stroke-dasharray:none"
       id="rect2985-0"
       width="235.28424"
       height="36.633831"
       x="89.501846"
       y="367.61203" />
    <a
       id="a3013-6"
       transform="matrix(0.78553954,0,0,0.87896544,509.87367,235.94619)">
      <text
         sodipodi:linespacing="125%"
         id="text2995-2"
         y="150.93361"
         x="-425.71429"
         style="font-size:12px;font-style:normal;font-weight:normal;line-height:125%;letter-spacing:0px;word-spacing:0px;fill:#000000;fill-opacity:1;stroke:none;font-family:Sans"
         xml:space="preserve"><tspan
           id="tspan2999-1"
           y="150.93361"
           x="-425.71429"
           sodipodi:role="line" /><tspan
           id="tspan3005-9"
           y="165.93361"
           x="-425.71429"
           sodipodi:role="line">val_nxt = ↑↓</tspan><tspan
           id="tspan3009-0"
           y="180.93361"
           x="-425.71429"
           sodipodi:role="line">en_cpt =  ↑↓</tspan><tspan
           y="195.93361"
           x="-425.71429"
           sodipodi:role="line"
           id="tspan3142"> </tspan><tspan
           id="tspan3011-2"
           y="210.93361"
           x="-425.71429"
           sodipodi:role="line" /></text>
    </a>
    <rect
       style="fill:#ffffff;stroke:#010000;stroke-width:0.70616436;stroke-linejoin:round;stroke-miterlimit:4;stroke-opacity:1;stroke-dasharray:none"
       id="rect3083-3"
       width="121.05675"
       height="122.06556"
       x="-801.1568"
       y="896.74384"
       transform="matrix(0.96091833,-0.27683202,0.96091833,0.27683202,0,0)"
       ry="0" />
    <text
       xml:space="preserve"
       style="font-size:10.65778351px;font-style:normal;font-weight:normal;line-height:125%;letter-spacing:0px;word-spacing:0px;fill:#000000;fill-opacity:1;stroke:none;font-family:Sans"
       x="193.84332"
       y="436.05536"
       id="text3178-7"
       sodipodi:linespacing="125%"
       transform="scale(0.92531607,1.0807118)"><tspan
         sodipodi:role="line"
         id="tspan3180-5"
         x="193.84332"
         y="436.05536">acc_nxt =? 1</tspan></text>
    <rect
       style="fill:#ffffff;stroke:#010000;stroke-width:0.700984;stroke-linejoin:round;stroke-miterlimit:4;stroke-opacity:1;stroke-dasharray:none"
       id="rect2985-9"
       width="235.14752"
       height="58.851688"
       x="91.947723"
       y="594.58978" />
    <a
       id="a3013-2"
       transform="matrix(0.74499921,0,0,0.78935155,495.00709,460.93652)">
      <text
         sodipodi:linespacing="125%"
         id="text2995-28"
         y="150.93361"
         x="-425.71429"
         style="font-size:12px;font-style:normal;font-weight:normal;line-height:125%;letter-spacing:0px;word-spacing:0px;fill:#000000;fill-opacity:1;stroke:none;font-family:Sans"
         xml:space="preserve"><tspan
           y="150.93361"
           x="-425.71429"
           id="tspan2997-9"
           sodipodi:role="line" /><tspan
           id="tspan2999-7"
           y="165.93361"
           x="-425.71429"
           sodipodi:role="line" /><tspan
           id="tspan3001-3"
           y="180.93361"
           x="-425.71429"
           sodipodi:role="line">en_getMSB =  ↑↓</tspan><tspan
           id="tspan3005-1"
           y="195.93361"
           x="-425.71429"
           sodipodi:role="line">n_load_get = ↑↓</tspan><tspan
           id="tspan3007-29"
           y="210.93361"
           x="-425.71429"
           sodipodi:role="line">en_cpt =  ↑↓</tspan><tspan
           id="tspan3009-3"
           y="225.93361"
           x="-425.71429"
           sodipodi:role="line">nLoad_cpt = ↑↓</tspan><tspan
           y="240.93361"
           x="-425.71429"
           sodipodi:role="line"
           id="tspan3317">val_nxt = ↑↓ </tspan><tspan
           id="tspan3011-1"
           y="255.93361"
           x="-425.71429"
           sodipodi:role="line" /></text>
    </a>
    <rect
       style="fill:#ffffff;stroke:#010000;stroke-width:0.47520739;stroke-linejoin:round;stroke-miterlimit:4;stroke-opacity:1;stroke-dasharray:none"
       id="rect2985-7"
       width="235.35645"
       height="27.022367"
       x="449.54596"
       y="456.28357" />
    <a
       id="a3013-8"
       transform="matrix(0.78553954,0,0,0.87896544,869.95389,326.59899)">
      <text
         sodipodi:linespacing="125%"
         id="text2995-4"
         y="144.43246"
         x="-426.6236"
         style="font-size:12px;font-style:normal;font-weight:normal;line-height:125%;letter-spacing:0px;word-spacing:0px;fill:#000000;fill-opacity:1;stroke:none;font-family:Sans"
         xml:space="preserve"><tspan
           y="144.43246"
           x="-426.6236"
           id="tspan2997-5"
           sodipodi:role="line" /><tspan
           id="tspan2999-0"
           y="159.43246"
           x="-426.6236"
           sodipodi:role="line">val_nxt = ↑↓</tspan><tspan
           id="tspan3011-0"
           y="174.43246"
           x="-426.6236"
           sodipodi:role="line">sel_out = ↑↓</tspan></text>
    </a>
    <rect
       style="fill:#ffffff;stroke:#010000;stroke-width:0.70616436;stroke-linejoin:round;stroke-miterlimit:4;stroke-opacity:1;stroke-dasharray:none"
       id="rect3083-3-6"
       width="121.05675"
       height="122.06556"
       x="-758.5097"
       y="1226.5269"
       transform="matrix(0.96091833,-0.27683202,0.96091833,0.27683202,0,0)"
       ry="0" />
    <text
       xml:space="preserve"
       style="font-size:10.65778351px;font-style:normal;font-weight:normal;line-height:125%;letter-spacing:0px;word-spacing:0px;fill:#000000;fill-opacity:1;stroke:none;font-family:Sans"
       x="545.8656"
       y="508.94623"
       id="text3178-7-1"
       sodipodi:linespacing="125%"
       transform="scale(0.92531607,1.0807118)"><tspan
         sodipodi:role="line"
         id="tspan3180-5-5"
         x="545.8656"
         y="508.94623">det2=? 1 &amp;&amp; acc_nxt =? 1</tspan></text>
    <rect
       style="fill:#ffffff;stroke:#010000;stroke-width:0.70616436;stroke-linejoin:round;stroke-miterlimit:4;stroke-opacity:1;stroke-dasharray:none"
       id="rect3083-3-5"
       width="121.05675"
       height="122.06556"
       x="-937.61145"
       y="1405.8508"
       transform="matrix(0.96091833,-0.27683202,0.96091833,0.27683202,0,0)"
       ry="0" />
    <rect
       style="fill:#ffffff;stroke:#010000;stroke-width:0.62155473;stroke-linejoin:round;stroke-miterlimit:4;stroke-opacity:1;stroke-dasharray:none"
       id="rect2985-30"
       width="235.22102"
       height="46.255756"
       x="290.72919"
       y="880.26318" />
    <a
       id="a3013-7"
       transform="matrix(0.78553954,0,0,0.87896544,711.06959,746.62135)">
      <text
         sodipodi:linespacing="125%"
         id="text2995-8"
         y="150.93361"
         x="-425.71429"
         style="font-size:12px;font-style:normal;font-weight:normal;line-height:125%;letter-spacing:0px;word-spacing:0px;fill:#000000;fill-opacity:1;stroke:none;font-family:Sans"
         xml:space="preserve"><tspan
           y="150.93361"
           x="-425.71429"
           id="tspan2997-68"
           sodipodi:role="line" /><tspan
           id="tspan3001-4"
           y="165.93361"
           x="-425.71429"
           sodipodi:role="line">val_nxt = ↑↓</tspan><tspan
           id="tspan3003-3"
           y="180.93361"
           x="-425.71429"
           sodipodi:role="line">n_load_get = ↑↓</tspan><tspan
           id="tspan3009-2"
           y="195.93361"
           x="-425.71429"
           sodipodi:role="line">end_of_data = ↓↑ </tspan><tspan
           id="tspan3011-06"
           y="210.93361"
           x="-425.71429"
           sodipodi:role="line" /></text>
    </a>
    <path
       style="fill:none;stroke:#000000;stroke-width:0.88814861px;stroke-linecap:butt;stroke-linejoin:miter;stroke-opacity:1"
       d="m 207.79888,301.46803 0,0"
       id="path3506"
       inkscape:connector-type="polyline"
       inkscape:connector-curvature="3"
       inkscape:connection-start="#rect3083"
       inkscape:connection-start-point="d4"
       inkscape:connection-end-point="d4"
       inkscape:connection-end="#rect3083" />
    <path
       style="fill:none;stroke:#000000;stroke-width:0.88814861px;stroke-linecap:butt;stroke-linejoin:miter;stroke-opacity:1"
       d="m 207.14395,267.1557 0.41501,0 0,-30.54169"
       id="path3530"
       inkscape:connector-type="orthogonal"
       inkscape:connector-curvature="0" />
    <path
       style="fill:none;stroke:#000000;stroke-width:0.88814861px;stroke-linecap:butt;stroke-linejoin:miter;stroke-opacity:1"
       d="m 207.76655,365.81021 0.41503,0 0,-30.54169"
       id="path3530-8"
       inkscape:connector-type="orthogonal"
       inkscape:connector-curvature="0" />
    <path
       style="fill:none;stroke:#000000;stroke-width:0.88814861px;stroke-linecap:butt;stroke-linejoin:miter;stroke-opacity:1"
       d="m 207.76655,435.61977 0.41503,0 0,-30.54167"
       id="path3530-8-9"
       inkscape:connector-type="orthogonal"
       inkscape:connector-curvature="0" />
    <path
       sodipodi:type="star"
       style="fill:#000000;stroke:#010000;stroke-width:1;stroke-linejoin:round;stroke-miterlimit:4;stroke-opacity:1;stroke-dasharray:none"
       id="path3026-6"
       sodipodi:sides="3"
       sodipodi:cx="-410"
       sodipodi:cy="353.79074"
       sodipodi:r1="14.285714"
       sodipodi:r2="6.964036"
       sodipodi:arg1="1.5707963"
       sodipodi:arg2="2.654265"
       inkscape:flatsided="false"
       inkscape:rounded="0"
       inkscape:randomized="0"
       d="m -410,368.07646 -6.15333,-11.0247 -6.21846,-10.40388 12.62433,0.18341 12.11925,-0.18341 -6.47099,10.84129 z"
       inkscape:transform-center-y="2.3300123"
       transform="matrix(0.57431069,0,0,0.6524018,442.9457,28.183659)" />
    <path
       sodipodi:type="star"
       style="fill:#000000;stroke:#010000;stroke-width:1;stroke-linejoin:round;stroke-miterlimit:4;stroke-opacity:1;stroke-dasharray:none"
       id="path3026-64"
       sodipodi:sides="3"
       sodipodi:cx="-410"
       sodipodi:cy="353.79074"
       sodipodi:r1="14.285714"
       sodipodi:r2="6.964036"
       sodipodi:arg1="1.5707963"
       sodipodi:arg2="2.654265"
       inkscape:flatsided="false"
       inkscape:rounded="0"
       inkscape:randomized="0"
       d="m -410,368.07646 -6.15333,-11.0247 -6.21846,-10.40388 12.62433,0.18341 12.11925,-0.18341 -6.47099,10.84129 z"
       inkscape:transform-center-y="2.330012"
       transform="matrix(0.57431069,0,0,0.6524018,443.53272,126.9093)" />
    <path
       sodipodi:type="star"
       style="fill:#000000;stroke:#010000;stroke-width:1;stroke-linejoin:round;stroke-miterlimit:4;stroke-opacity:1;stroke-dasharray:none"
       id="path3026-9"
       sodipodi:sides="3"
       sodipodi:cx="-410"
       sodipodi:cy="353.79074"
       sodipodi:r1="14.285714"
       sodipodi:r2="6.964036"
       sodipodi:arg1="1.5707963"
       sodipodi:arg2="2.654265"
       inkscape:flatsided="false"
       inkscape:rounded="0"
       inkscape:randomized="0"
       d="m -410,368.07646 -6.15333,-11.0247 -6.21846,-10.40388 12.62433,0.18341 12.11925,-0.18341 -6.47099,10.84129 z"
       inkscape:transform-center-y="2.3300122"
       transform="matrix(0.57431069,0,0,0.6524018,443.82628,196.17456)" />
    <text
       xml:space="preserve"
       style="font-size:10.65778351px;font-style:normal;font-weight:normal;line-height:125%;letter-spacing:0px;word-spacing:0px;fill:#000000;fill-opacity:1;stroke:none;font-family:Sans"
       x="228.61067"
       y="318.50903"
       id="text3178-5"
       sodipodi:linespacing="125%"
       transform="scale(0.92531607,1.0807118)"><tspan
         sodipodi:role="line"
         id="tspan3180-0"
         x="228.61067"
         y="318.50903">Yes</tspan></text>
    <path
       style="fill:none;stroke:#000000;stroke-width:0.88814861px;stroke-linecap:butt;stroke-linejoin:miter;stroke-opacity:1"
       d="m 209.0477,534.88859 0.41501,0 0,-30.5417"
       id="path3530-8-7"
       inkscape:connector-type="orthogonal"
       inkscape:connector-curvature="0" />
    <path
       sodipodi:type="star"
       style="fill:#000000;stroke:#010000;stroke-width:1;stroke-linejoin:round;stroke-miterlimit:4;stroke-opacity:1;stroke-dasharray:none"
       id="path3026-64-2"
       sodipodi:sides="3"
       sodipodi:cx="-410"
       sodipodi:cy="353.79074"
       sodipodi:r1="14.285714"
       sodipodi:r2="6.964036"
       sodipodi:arg1="1.5707963"
       sodipodi:arg2="2.654265"
       inkscape:flatsided="false"
       inkscape:rounded="0"
       inkscape:randomized="0"
       d="m -410,368.07646 -6.15333,-11.0247 -6.21846,-10.40388 12.62433,0.18341 12.11925,-0.18341 -6.47099,10.84129 z"
       inkscape:transform-center-y="2.3300099"
       transform="matrix(0.57431069,0,0,0.6524018,444.81395,353.19276)" />
    <text
       xml:space="preserve"
       style="font-size:10.65778351px;font-style:normal;font-weight:normal;line-height:125%;letter-spacing:0px;word-spacing:0px;fill:#000000;fill-opacity:1;stroke:none;font-family:Sans"
       x="229.99515"
       y="474.95996"
       id="text3178-5-7"
       sodipodi:linespacing="125%"
       transform="scale(0.92531607,1.0807118)"><tspan
         sodipodi:role="line"
         id="tspan3180-0-2"
         x="229.99515"
         y="474.95996">Yes</tspan></text>
    <path
       transform="matrix(0,-0.6524018,0.57431069,0,237.19048,201.93445)"
       sodipodi:type="star"
       style="fill:#000000;stroke:#010000;stroke-width:1;stroke-linejoin:round;stroke-miterlimit:4;stroke-opacity:1;stroke-dasharray:none"
       id="path3026-3-6-2"
       sodipodi:sides="3"
       sodipodi:cx="-410"
       sodipodi:cy="353.79074"
       sodipodi:r1="14.285714"
       sodipodi:r2="6.964036"
       sodipodi:arg1="1.5707963"
       sodipodi:arg2="2.654265"
       inkscape:flatsided="false"
       inkscape:rounded="0"
       inkscape:randomized="0"
       d="m -410,368.07646 -6.15333,-11.0247 -6.21846,-10.40388 12.62433,0.18341 12.11925,-0.18341 -6.47099,10.84129 z"
       inkscape:transform-center-x="-2.0511183" />
    <path
       style="fill:none;stroke:#000000;stroke-width:0.88814861px;stroke-linecap:butt;stroke-linejoin:miter;stroke-opacity:1"
       d="m 565.22595,513.91748 0.41503,0 0,-30.5417"
       id="path3530-8-7-6"
       inkscape:connector-type="orthogonal"
       inkscape:connector-curvature="0" />
    <path
       sodipodi:type="star"
       style="fill:#000000;stroke:#010000;stroke-width:1;stroke-linejoin:round;stroke-miterlimit:4;stroke-opacity:1;stroke-dasharray:none"
       id="path3026-64-2-1"
       sodipodi:sides="3"
       sodipodi:cx="-410"
       sodipodi:cy="353.79074"
       sodipodi:r1="14.285714"
       sodipodi:r2="6.964036"
       sodipodi:arg1="1.5707963"
       sodipodi:arg2="2.654265"
       inkscape:flatsided="false"
       inkscape:rounded="0"
       inkscape:randomized="0"
       d="m -410,368.07646 -6.15333,-11.0247 -6.21846,-10.40388 12.62433,0.18341 12.11925,-0.18341 -6.47099,10.84129 z"
       inkscape:transform-center-y="2.3300091"
       transform="matrix(0.57431069,0,0,0.6524018,800.99209,275.01657)" />
    <path
       style="fill:none;stroke:#000000;stroke-width:0.88814861px;stroke-linecap:butt;stroke-linejoin:miter;stroke-opacity:1"
       d="m 565.81298,614.01431 0.41502,0 0,-30.5417"
       id="path3530-8-7-1"
       inkscape:connector-type="orthogonal"
       inkscape:connector-curvature="0" />
    <path
       sodipodi:type="star"
       style="fill:#000000;stroke:#010000;stroke-width:1;stroke-linejoin:round;stroke-miterlimit:4;stroke-opacity:1;stroke-dasharray:none"
       id="path3026-64-2-5"
       sodipodi:sides="3"
       sodipodi:cx="-410"
       sodipodi:cy="353.79074"
       sodipodi:r1="14.285714"
       sodipodi:r2="6.964036"
       sodipodi:arg1="1.5707963"
       sodipodi:arg2="2.654265"
       inkscape:flatsided="false"
       inkscape:rounded="0"
       inkscape:randomized="0"
       d="m -410,368.07646 -6.15333,-11.0247 -6.21846,-10.40388 12.62433,0.18341 12.11925,-0.18341 -6.47099,10.84129 z"
       inkscape:transform-center-y="2.3300167"
       transform="matrix(0.57431069,0,0,0.6524018,801.57919,375.11341)" />
    <text
       xml:space="preserve"
       style="font-size:10.65778351px;font-style:normal;font-weight:normal;line-height:125%;letter-spacing:0px;word-spacing:0px;fill:#000000;fill-opacity:1;stroke:none;font-family:Sans"
       x="615.55554"
       y="548.17627"
       id="text3178-5-7-9"
       sodipodi:linespacing="125%"
       transform="scale(0.92531607,1.0807118)"><tspan
         sodipodi:role="line"
         id="tspan3180-0-2-4"
         x="615.55554"
         y="548.17627">No</tspan></text>
    <path
       sodipodi:type="star"
       style="fill:#000000;stroke:#010000;stroke-width:1;stroke-linejoin:round;stroke-miterlimit:4;stroke-opacity:1;stroke-dasharray:none"
       id="path3026-64-2-1-9"
       sodipodi:sides="3"
       sodipodi:cx="-410"
       sodipodi:cy="353.79074"
       sodipodi:r1="14.285714"
       sodipodi:r2="6.964036"
       sodipodi:arg1="1.5707963"
       sodipodi:arg2="2.654265"
       inkscape:flatsided="false"
       inkscape:rounded="0"
       inkscape:randomized="0"
       d="m -410,368.07646 -6.15333,-11.0247 -6.21846,-10.40388 12.62433,0.18341 12.11925,-0.18341 -6.47099,10.84129 z"
       inkscape:transform-center-y="2.3300137"
       transform="matrix(0.57431069,0,0,0.6524018,801.38139,215.91434)" />
    <path
       style="fill:none;stroke:#000000;stroke-width:0.88814861px;stroke-linecap:butt;stroke-linejoin:miter;stroke-opacity:1"
       d="m 204.5433,77.245179 0,63.760311"
       id="path3832"
       inkscape:connector-type="orthogonal"
       inkscape:connector-curvature="0" />
    <path
       sodipodi:type="star"
       style="fill:#000000;stroke:#010000;stroke-width:1;stroke-linejoin:round;stroke-miterlimit:4;stroke-opacity:1;stroke-dasharray:none"
       id="path3026-6-7"
       sodipodi:sides="3"
       sodipodi:cx="-410"
       sodipodi:cy="353.79074"
       sodipodi:r1="14.285714"
       sodipodi:r2="6.964036"
       sodipodi:arg1="1.5707963"
       sodipodi:arg2="2.654265"
       inkscape:flatsided="false"
       inkscape:rounded="0"
       inkscape:randomized="0"
       d="m -410,368.07646 -6.15333,-11.0247 -6.21846,-10.40388 12.62433,0.18341 12.11925,-0.18341 -6.47099,10.84129 z"
       inkscape:transform-center-y="2.330012"
       transform="matrix(0.57431069,0,0,0.6524018,439.97499,-96.854205)" />
    <path
       style="fill:none;stroke:#000000;stroke-width:0.88814861px;stroke-linecap:butt;stroke-linejoin:miter;stroke-opacity:1;display:inline"
       d="m 323.78165,301.57571 43.57174,0 0,-199.84993"
       id="path3861"
       inkscape:connector-type="orthogonal"
       inkscape:connector-curvature="0" />
    <path
       style="fill:none;stroke:#000000;stroke-width:0.88814861px;stroke-linecap:butt;stroke-linejoin:miter;stroke-opacity:1"
       d="m 366.9991,101.92659 -79.54025,0 0,0.68559"
       id="path3865"
       inkscape:connector-type="orthogonal"
       inkscape:connector-curvature="0" />
    <path
       style="fill:none;stroke:#000000;stroke-width:0.88814861px;stroke-linecap:butt;stroke-linejoin:miter;stroke-opacity:1"
       d="m 288.48612,101.92659 -82.76877,0 0,0.68559"
       id="path3869"
       inkscape:connector-type="orthogonal"
       inkscape:connector-curvature="0" />
    <path
       transform="matrix(0,0.6524018,-0.57431069,0,416.33696,369.5711)"
       sodipodi:type="star"
       style="fill:#000000;stroke:#010000;stroke-width:1;stroke-linejoin:round;stroke-miterlimit:4;stroke-opacity:1;stroke-dasharray:none"
       id="path3026-3-7-1"
       sodipodi:sides="3"
       sodipodi:cx="-410"
       sodipodi:cy="353.79074"
       sodipodi:r1="14.285714"
       sodipodi:r2="6.964036"
       sodipodi:arg1="1.5707963"
       sodipodi:arg2="2.654265"
       inkscape:flatsided="false"
       inkscape:rounded="0"
       inkscape:randomized="0"
       d="m -410,368.07646 -6.15333,-11.0247 -6.21846,-10.40388 12.62433,0.18341 12.11925,-0.18341 -6.47099,10.84129 z"
       inkscape:transform-center-x="2.0511074"
       inkscape:transform-center-y="-5.1531404e-05" />
    <text
       xml:space="preserve"
       style="font-size:17.76297379px;font-style:normal;font-weight:bold;line-height:125%;letter-spacing:0px;word-spacing:0px;fill:#000000;fill-opacity:1;stroke:none;font-family:Sans;-inkscape-font-specification:Sans Bold"
       x="299.84058"
       y="128.03226"
       id="text3103"
       sodipodi:linespacing="125%"
       transform="scale(0.92531607,1.0807118)"><tspan
         sodipodi:role="line"
         id="tspan3105"
         x="299.84058"
         y="128.03226">sInit</tspan></text>
    <text
       xml:space="preserve"
       style="font-size:17.76297379px;font-style:normal;font-weight:bold;line-height:125%;letter-spacing:0px;word-spacing:0px;fill:#000000;fill-opacity:1;stroke:none;font-family:Sans;-inkscape-font-specification:Sans Bold"
       x="273.95105"
       y="334.79645"
       id="text3107"
       sodipodi:linespacing="125%"
       transform="scale(0.92531607,1.0807118)"><tspan
         sodipodi:role="line"
         id="tspan3109"
         x="273.95105"
         y="334.79645">sStartConv</tspan></text>
    <text
       xml:space="preserve"
       style="font-size:17.76297379px;font-style:normal;font-weight:bold;line-height:125%;letter-spacing:0px;word-spacing:0px;fill:#000000;fill-opacity:1;stroke:none;font-family:Sans;-inkscape-font-specification:Sans Bold"
       x="264.50702"
       y="545.98199"
       id="text3111"
       sodipodi:linespacing="125%"
       transform="scale(0.92531607,1.0807118)"><tspan
         sodipodi:role="line"
         id="tspan3113"
         x="264.50702"
         y="545.98199">sConvertion</tspan></text>
    <text
       xml:space="preserve"
       style="font-size:17.76297379px;font-style:normal;font-weight:bold;line-height:125%;letter-spacing:0px;word-spacing:0px;fill:#000000;fill-opacity:1;stroke:none;font-family:Sans;-inkscape-font-specification:Sans Bold"
       x="495.2489"
       y="407.37042"
       id="text3123"
       sodipodi:linespacing="125%"
       transform="scale(0.92531607,1.0807118)"><tspan
         sodipodi:role="line"
         id="tspan3125"
         x="495.2489"
         y="407.37042">sWaitAcc</tspan></text>
    <path
       sodipodi:type="star"
       style="fill:#000000;stroke:#010000;stroke-width:1;stroke-linejoin:round;stroke-miterlimit:4;stroke-opacity:1;stroke-dasharray:none"
       id="path3026-9-6"
       sodipodi:sides="3"
       sodipodi:cx="-410"
       sodipodi:cy="353.79074"
       sodipodi:r1="14.285714"
       sodipodi:r2="6.964036"
       sodipodi:arg1="1.5707963"
       sodipodi:arg2="2.654265"
       inkscape:flatsided="false"
       inkscape:rounded="0"
       inkscape:randomized="0"
       d="m -410,368.07646 -6.15333,-11.0247 -6.21846,-10.40388 12.62433,0.18341 12.11925,-0.18341 -6.47099,10.84129 z"
       inkscape:transform-center-y="2.3300084"
       transform="matrix(0.57431069,0,0,0.6524018,641.13809,639.03117)" />
    <path
       style="fill:none;stroke:#000000;stroke-width:0.88814861px;stroke-linecap:butt;stroke-linejoin:miter;stroke-opacity:1"
       d="m 209.10563,535.20853 0.4151,0 0,48.47887"
       id="path3148"
       inkscape:connector-type="orthogonal"
       inkscape:connector-curvature="0" />
    <path
       style="fill:none;stroke:#000000;stroke-width:0.88814861px;stroke-linecap:butt;stroke-linejoin:miter;stroke-opacity:1"
       d="m 707.68679,416.85529 0,-1.93916 -0.1038,0"
       id="path3158"
       inkscape:connector-type="orthogonal"
       inkscape:connector-curvature="0" />
    <path
       style="fill:none;stroke:#000000;stroke-width:0.88814861px;stroke-linecap:butt;stroke-linejoin:miter;stroke-opacity:1"
       d="m 706.38959,414.97673 1.1415,0 0,0.0606"
       id="path3160"
       inkscape:connector-type="orthogonal"
       inkscape:connector-curvature="0" />
    <path
       transform="matrix(0,0.6524018,-0.57431069,0,421.20775,795.76088)"
       sodipodi:type="star"
       style="fill:#000000;stroke:#010000;stroke-width:1;stroke-linejoin:round;stroke-miterlimit:4;stroke-opacity:1;stroke-dasharray:none"
       id="path3026-3-7-7"
       sodipodi:sides="3"
       sodipodi:cx="-410"
       sodipodi:cy="353.79074"
       sodipodi:r1="14.285714"
       sodipodi:r2="6.964036"
       sodipodi:arg1="1.5707963"
       sodipodi:arg2="2.654265"
       inkscape:flatsided="false"
       inkscape:rounded="0"
       inkscape:randomized="0"
       d="m -410,368.07646 -6.15333,-11.0247 -6.21846,-10.40388 12.62433,0.18341 12.11925,-0.18341 -6.47099,10.84129 z"
       inkscape:transform-center-x="2.0511147"
       inkscape:transform-center-y="-4.8629822e-05" />
    <path
       style="fill:none;stroke:#000000;stroke-width:0.88814861px;stroke-linecap:butt;stroke-linejoin:miter;stroke-opacity:1;display:inline"
       d="m 62.339414,989.08628 -1.027289,0 0,-887.15968"
       id="path3245"
       inkscape:connector-type="orthogonal"
       inkscape:connector-curvature="0" />
    <path
       style="fill:none;stroke:#000000;stroke-width:0.88814861px;stroke-linecap:butt;stroke-linejoin:miter;stroke-opacity:1"
       d="m 60.871885,102.26939 141.323325,0 0,-0.3428"
       id="path3247"
       inkscape:connector-type="orthogonal"
       inkscape:connector-curvature="0" />
    <path
       transform="matrix(0,-0.6524018,0.57431069,0,-7.7209216,-165.24271)"
       sodipodi:type="star"
       style="fill:#000000;stroke:#010000;stroke-width:1;stroke-linejoin:round;stroke-miterlimit:4;stroke-opacity:1;stroke-dasharray:none"
       id="path3026-3-6-2-9"
       sodipodi:sides="3"
       sodipodi:cx="-410"
       sodipodi:cy="353.79074"
       sodipodi:r1="14.285714"
       sodipodi:r2="6.964036"
       sodipodi:arg1="1.5707963"
       sodipodi:arg2="2.654265"
       inkscape:flatsided="false"
       inkscape:rounded="0"
       inkscape:randomized="0"
       d="m -410,368.07646 -6.15333,-11.0247 -6.21846,-10.40388 12.62433,0.18341 12.11925,-0.18341 -6.47099,10.84129 z"
       inkscape:transform-center-x="-2.0511151" />
    <flowRoot
       xml:space="preserve"
       id="flowRoot3144"
       style="fill:black;stroke:none;stroke-opacity:1;stroke-width:1px;stroke-linejoin:miter;stroke-linecap:butt;fill-opacity:1;font-family:IPAMincho;font-style:normal;font-weight:normal;font-size:40px;line-height:125%;letter-spacing:0px;word-spacing:0px;-inkscape-font-specification:IPAMincho;font-stretch:normal;font-variant:normal"><flowRegion
         id="flowRegion3146"><rect
           id="rect3148"
           width="92.85714"
           height="216.42857"
           x="373.57144"
           y="545.2193" /></flowRegion><flowPara
         id="flowPara3150"></flowPara></flowRoot>    <rect
       style="fill:#ffffff;stroke:#010000;stroke-width:0.70616436;stroke-linejoin:round;stroke-miterlimit:4;stroke-opacity:1;stroke-dasharray:none"
       id="rect3083-3-3"
       width="121.05675"
       height="122.06556"
       x="-1259.2755"
       y="1354.7687"
       transform="matrix(0.96091833,-0.27683202,0.96091833,0.27683202,0,0)"
       ry="0" />
    <text
       xml:space="preserve"
       style="font-size:10.65778351px;font-style:normal;font-weight:normal;line-height:125%;letter-spacing:0px;word-spacing:0px;fill:#000000;fill-opacity:1;stroke:none;font-family:Sans"
       x="158.81192"
       y="669.33002"
       id="text3178-7-6"
       sodipodi:linespacing="125%"
       transform="scale(0.92531607,1.0807118)"><tspan
         sodipodi:role="line"
         id="tspan3180-5-75"
         x="158.81192"
         y="669.33002">det2=? 1 &amp;&amp; acc_nxt =? 1</tspan></text>
    <rect
       style="fill:#ffffff;stroke:#010000;stroke-width:0.70616436;stroke-linejoin:round;stroke-miterlimit:4;stroke-opacity:1;stroke-dasharray:none"
       id="rect3083-3-35"
       width="121.05675"
       height="122.06556"
       x="-1446.9861"
       y="1542.4792"
       transform="matrix(0.96091833,-0.27683202,0.96091833,0.27683202,0,0)"
       ry="0" />
    <text
       xml:space="preserve"
       style="font-size:10.65778351px;font-style:normal;font-weight:normal;line-height:125%;letter-spacing:0px;word-spacing:0px;fill:#000000;fill-opacity:1;stroke:none;font-family:Sans"
       x="193.74579"
       y="766.8988"
       id="text3178-7-62"
       sodipodi:linespacing="125%"
       transform="scale(0.92531607,1.0807118)"><tspan
         sodipodi:role="line"
         id="tspan3180-5-9"
         x="193.74579"
         y="766.8988">acc_nxt =? 0</tspan></text>
    <path
       style="fill:none;stroke:#000000;stroke-width:1px;stroke-linecap:butt;stroke-linejoin:miter;stroke-opacity:1"
       d="m 208.2177,689.21234 0,-35.22907 -0.25254,0"
       id="path3205"
       inkscape:connector-type="orthogonal"
       inkscape:connector-curvature="0" />
    <path
       style="fill:none;stroke:#000000;stroke-width:1px;stroke-linecap:butt;stroke-linejoin:miter;stroke-opacity:1"
       d="m 208.69059,793.17867 0,-35.22907 -0.25254,0"
       id="path3205-2"
       inkscape:connector-type="orthogonal"
       inkscape:connector-curvature="0" />
    <path
       sodipodi:type="star"
       style="fill:#000000;stroke:#010000;stroke-width:1;stroke-linejoin:round;stroke-miterlimit:4;stroke-opacity:1;stroke-dasharray:none"
       id="path3026-64-2-7"
       sodipodi:sides="3"
       sodipodi:cx="-410"
       sodipodi:cy="353.79074"
       sodipodi:r1="14.285714"
       sodipodi:r2="6.964036"
       sodipodi:arg1="1.5707963"
       sodipodi:arg2="2.654265"
       inkscape:flatsided="false"
       inkscape:rounded="0"
       inkscape:randomized="0"
       d="m -410,368.07646 -6.15333,-11.0247 -6.21846,-10.40388 12.62433,0.18341 12.11925,-0.18341 -6.47099,10.84129 z"
       inkscape:transform-center-y="2.3300099"
       transform="matrix(0.57431069,0,0,0.6524018,443.68167,449.5756)" />
    <path
       sodipodi:type="star"
       style="fill:#000000;stroke:#010000;stroke-width:1;stroke-linejoin:round;stroke-miterlimit:4;stroke-opacity:1;stroke-dasharray:none"
       id="path3026-64-2-0"
       sodipodi:sides="3"
       sodipodi:cx="-410"
       sodipodi:cy="353.79074"
       sodipodi:r1="14.285714"
       sodipodi:r2="6.964036"
       sodipodi:arg1="1.5707963"
       sodipodi:arg2="2.654265"
       inkscape:flatsided="false"
       inkscape:rounded="0"
       inkscape:randomized="0"
       d="m -410,368.07646 -6.15333,-11.0247 -6.21846,-10.40388 12.62433,0.18341 12.11925,-0.18341 -6.47099,10.84129 z"
       inkscape:transform-center-y="2.3300099"
       transform="matrix(0.57431069,0,0,0.6524018,444.03881,553.86132)" />
    <text
       xml:space="preserve"
       style="font-size:10.65778351px;font-style:normal;font-weight:normal;line-height:125%;letter-spacing:0px;word-spacing:0px;fill:#000000;fill-opacity:1;stroke:none;font-family:Sans"
       x="351.37561"
       y="272.80533"
       id="text3178-5-9"
       sodipodi:linespacing="125%"
       transform="scale(0.92531607,1.0807118)"><tspan
         sodipodi:role="line"
         id="tspan3180-0-3"
         x="351.37561"
         y="272.80533">No</tspan></text>
    <text
       xml:space="preserve"
       style="font-size:10.65778351px;font-style:normal;font-weight:normal;line-height:125%;letter-spacing:0px;word-spacing:0px;fill:#000000;fill-opacity:1;stroke:none;font-family:Sans"
       x="229.96307"
       y="708.84778"
       id="text3178-5-9-6"
       sodipodi:linespacing="125%"
       transform="scale(0.92531607,1.0807118)"><tspan
         sodipodi:role="line"
         id="tspan3180-0-3-0"
         x="229.96307"
         y="708.84778">No</tspan></text>
    <text
       xml:space="preserve"
       style="font-size:10.65778351px;font-style:normal;font-weight:normal;line-height:125%;letter-spacing:0px;word-spacing:0px;fill:#000000;fill-opacity:1;stroke:none;font-family:Sans"
       x="230.50893"
       y="809.79645"
       id="text3178-5-9-62"
       sodipodi:linespacing="125%"
       transform="scale(0.92531607,1.0807118)"><tspan
         sodipodi:role="line"
         id="tspan3180-0-3-6"
         x="230.50893"
         y="809.79645">No</tspan></text>
    <path
       style="fill:none;stroke:#000000;stroke-width:0.99754924px;stroke-linecap:butt;stroke-linejoin:miter;stroke-opacity:1"
       d="m 208.97653,861.30993 0.12628,23.87324 -132.837518,-1.0052 0.876356,-356.47782 130.716692,0.71078"
       id="path3315"
       inkscape:connector-curvature="0" />
    <rect
       style="fill:#ffffff;stroke:#010000;stroke-width:0.70616436;stroke-linejoin:round;stroke-miterlimit:4;stroke-opacity:1;stroke-dasharray:none"
       id="rect3083-3-1"
       width="121.05675"
       height="122.06556"
       x="-1618.9207"
       y="1922.5481"
       transform="matrix(0.96091833,-0.27683202,0.96091833,0.27683202,0,0)"
       ry="0" />
    <text
       xml:space="preserve"
       style="font-size:10.65778351px;font-style:normal;font-weight:normal;line-height:125%;letter-spacing:0px;word-spacing:0px;fill:#000000;fill-opacity:1;stroke:none;font-family:Sans"
       x="409.88815"
       y="908.29846"
       id="text3178-7-8"
       sodipodi:linespacing="125%"
       transform="scale(0.92531607,1.0807118)"><tspan
         sodipodi:role="line"
         id="tspan3180-5-79"
         x="409.88815"
         y="908.29846">acc_nxt =? 1</tspan></text>
    <text
       xml:space="preserve"
       style="font-size:10.65778351px;font-style:normal;font-weight:normal;line-height:125%;letter-spacing:0px;word-spacing:0px;fill:#000000;fill-opacity:1;stroke:none;font-family:Sans"
       x="446.03995"
       y="947.20306"
       id="text3178-5-7-2"
       sodipodi:linespacing="125%"
       transform="scale(0.92531607,1.0807118)"><tspan
         sodipodi:role="line"
         id="tspan3180-0-2-0"
         x="446.03995"
         y="947.20306">Yes</tspan></text>
    <path
       style="fill:none;stroke:#000000;stroke-width:1px;stroke-linecap:butt;stroke-linejoin:miter;stroke-opacity:1"
       d="m 408.125,946.82647 0,-20.35714"
       id="path3351"
       inkscape:connector-curvature="0" />
    <path
       sodipodi:type="star"
       style="fill:#000000;stroke:#010000;stroke-width:1;stroke-linejoin:round;stroke-miterlimit:4;stroke-opacity:1;stroke-dasharray:none"
       id="path3026-9-6-2"
       sodipodi:sides="3"
       sodipodi:cx="-410"
       sodipodi:cy="353.79074"
       sodipodi:r1="14.285714"
       sodipodi:r2="6.964036"
       sodipodi:arg1="1.5707963"
       sodipodi:arg2="2.654265"
       inkscape:flatsided="false"
       inkscape:rounded="0"
       inkscape:randomized="0"
       d="m -410,368.07646 -6.15333,-11.0247 -6.21846,-10.40388 12.62433,0.18341 12.11925,-0.18341 -6.47099,10.84129 z"
       inkscape:transform-center-y="2.3300084"
       transform="matrix(0.57431069,0,0,0.6524018,643.31647,706.58645)" />
    <path
       style="fill:none;stroke:#000000;stroke-width:1.02047312px;stroke-linecap:butt;stroke-linejoin:miter;stroke-opacity:1"
       d="m 409.00762,1013.6787 -0.0895,14.7446 -347.701182,-0.3709 0.108078,-39.82467"
       id="path3371"
       inkscape:connector-curvature="0" />
    <rect
       style="fill:#ffffff;fill-opacity:0;stroke:none"
       id="rect3379"
       width="11.696428"
       height="4.1517854"
       x="59.33036"
       y="987.0943" />
    <path
       style="fill:#ffffff;stroke:#ffffff;stroke-width:1.14625478px;stroke-linecap:butt;stroke-linejoin:miter;stroke-opacity:1"
       d="m 62.394715,988.19424 c 0.01035,0.0489 0.02511,0.0975 0.03122,0.14678 0.0043,0.0349 0,0.0699 0,0.10485 0,0.0769 0,0.15378 0,0.23066 0,0.45433 0,0.90868 0,1.36301 0,0.11183 0,0.22367 0,0.33551 0,0.0209 0,0.0419 0,0.0629 0,0.007 0.0074,0.0161 0,0.0209 -0.0074,0.005 -0.02386,0.005 -0.03122,0 -0.0013,-8.5e-4 0,-0.0762 0,-0.0839"
       id="path4181"
       inkscape:connector-curvature="0" />
    <path
       style="fill:none;stroke:#000000;stroke-width:1px;stroke-linecap:butt;stroke-linejoin:miter;stroke-opacity:1"
       d="m 525.22322,980.68808 21.91964,0.067 -0.71429,-133.75 -139.64286,-0.35714"
       id="path4183"
       inkscape:connector-curvature="0" />
    <path
       transform="matrix(0,0.67970367,-0.69882934,0,663.1401,1125.2221)"
       sodipodi:type="star"
       style="fill:#000000;stroke:#010000;stroke-width:1;stroke-linejoin:round;stroke-miterlimit:4;stroke-opacity:1;stroke-dasharray:none"
       id="path3026-3-7-4"
       sodipodi:sides="3"
       sodipodi:cx="-410"
       sodipodi:cy="353.79074"
       sodipodi:r1="14.285714"
       sodipodi:r2="6.964036"
       sodipodi:arg1="1.5707963"
       sodipodi:arg2="2.654265"
       inkscape:flatsided="false"
       inkscape:rounded="0"
       inkscape:randomized="0"
       d="m -410,368.07646 -6.15333,-11.0247 -6.21846,-10.40388 12.62433,0.18341 12.11925,-0.18341 -6.47099,10.84129 z"
       inkscape:transform-center-x="2.4958189"
       inkscape:transform-center-y="-4.3697329e-05" />
    <text
       xml:space="preserve"
       style="font-size:10.65778351px;font-style:normal;font-weight:normal;line-height:125%;letter-spacing:0px;word-spacing:0px;fill:#000000;fill-opacity:1;stroke:none;font-family:Sans"
       x="566.63684"
       y="904.3374"
       id="text3178-5-9-6-4"
       sodipodi:linespacing="125%"
       transform="scale(0.92531607,1.0807118)"><tspan
         sodipodi:role="line"
         id="tspan3180-0-3-0-5"
         x="566.63684"
         y="904.3374">No</tspan></text>
    <path
       style="fill:none;stroke:#000000;stroke-width:1.00933003px;stroke-linecap:butt;stroke-linejoin:miter;stroke-opacity:1"
       d="m 324.51618,723.81473 c 0,0 81.56047,-0.25253 81.56047,0 0,0.25252 -0.25728,148.98817 -0.25728,148.98817"
       id="path4224"
       inkscape:connector-curvature="0" />
    <text
       xml:space="preserve"
       style="font-size:10.65778351px;font-style:normal;font-weight:normal;line-height:125%;letter-spacing:0px;word-spacing:0px;fill:#000000;fill-opacity:1;stroke:none;font-family:Sans"
       x="349.73807"
       y="659.77545"
       id="text3178-5-7-2-9"
       sodipodi:linespacing="125%"
       transform="scale(0.92531607,1.0807118)"><tspan
         sodipodi:role="line"
         id="tspan3180-0-2-0-1"
         x="349.73807"
         y="659.77545">Yes</tspan></text>
    <path
       transform="matrix(0,-0.67970367,0.69882934,0,-48.209736,249.66705)"
       sodipodi:type="star"
       style="fill:#000000;stroke:#010000;stroke-width:1;stroke-linejoin:round;stroke-miterlimit:4;stroke-opacity:1;stroke-dasharray:none"
       id="path3026-3-6-28"
       sodipodi:sides="3"
       sodipodi:cx="-410"
       sodipodi:cy="353.79074"
       sodipodi:r1="14.285714"
       sodipodi:r2="6.964036"
       sodipodi:arg1="1.5707963"
       sodipodi:arg2="2.654265"
       inkscape:flatsided="false"
       inkscape:rounded="0"
       inkscape:randomized="0"
       d="m -410,368.07646 -6.15333,-11.0247 -6.21846,-10.40388 12.62433,0.18341 12.11925,-0.18341 -6.47099,10.84129 z"
       inkscape:transform-center-x="-2.4958221" />
    <path
       style="fill:none;stroke:#000000;stroke-width:1px;stroke-linecap:butt;stroke-linejoin:miter;stroke-opacity:1"
       d="m 324.64286,470.21932 112.14285,0.17858"
       id="path4265"
       inkscape:connector-curvature="0" />
    <text
       xml:space="preserve"
       style="font-size:10.65778351px;font-style:normal;font-weight:normal;line-height:125%;letter-spacing:0px;word-spacing:0px;fill:#000000;fill-opacity:1;stroke:none;font-family:Sans"
       x="349.92868"
       y="429.65768"
       id="text3178-5-9-6-9"
       sodipodi:linespacing="125%"
       transform="scale(0.92531607,1.0807118)"><tspan
         sodipodi:role="line"
         id="tspan3180-0-3-0-6"
         x="349.92868"
         y="429.65768">No</tspan></text>
    <text
       xml:space="preserve"
       style="font-size:10.65778351px;font-style:normal;font-weight:normal;line-height:125%;letter-spacing:0px;word-spacing:0px;fill:#000000;fill-opacity:1;stroke:none;font-family:Sans"
       x="576.26361"
       y="602.37384"
       id="text3178-7-0"
       sodipodi:linespacing="125%"
       transform="scale(0.92531607,1.0807118)"><tspan
         sodipodi:role="line"
         id="tspan3180-5-6"
         x="576.26361"
         y="602.37384">acc_nxt =? 1</tspan></text>
    <path
       style="fill:none;stroke:#000000;stroke-width:1px;stroke-linecap:butt;stroke-linejoin:miter;stroke-opacity:1"
       d="m 405.71429,723.79075 0.87211,-175.49469 43.94164,0.50508"
       id="path4309"
       inkscape:connector-curvature="0" />
    <path
       sodipodi:type="star"
       style="fill:#000000;stroke:#010000;stroke-width:1;stroke-linejoin:round;stroke-miterlimit:4;stroke-opacity:1;stroke-dasharray:none"
       id="path3026-9-6-5"
       sodipodi:sides="3"
       sodipodi:cx="-410"
       sodipodi:cy="353.79074"
       sodipodi:r1="14.285714"
       sodipodi:r2="6.964036"
       sodipodi:arg1="1.5707963"
       sodipodi:arg2="2.654265"
       inkscape:flatsided="false"
       inkscape:rounded="0"
       inkscape:randomized="0"
       d="m -410,368.07646 -6.15333,-11.0247 -6.21846,-10.40388 12.62433,0.18341 12.11925,-0.18341 -6.47099,10.84129 z"
       inkscape:transform-center-y="2.3300084"
       transform="matrix(0.57431069,0,0,0.6524018,641.2222,483.6386)" />
    <text
       xml:space="preserve"
       style="font-size:10.65778351px;font-style:normal;font-weight:normal;line-height:125%;letter-spacing:0px;word-spacing:0px;fill:#000000;fill-opacity:1;stroke:none;font-family:Sans"
       x="470.26675"
       y="501.03918"
       id="text3178-5-7-0"
       sodipodi:linespacing="125%"
       transform="scale(0.92531607,1.0807118)"><tspan
         sodipodi:role="line"
         id="tspan3180-0-2-6"
         x="470.26675"
         y="501.03918">Yes</tspan></text>
    <path
       style="fill:none;stroke:#000000;stroke-width:1px;stroke-linecap:butt;stroke-linejoin:miter;stroke-opacity:1"
       d="m 450.2755,648.30116 -85.61043,0 0,-28.78934 -36.87057,0"
       id="path4368"
       inkscape:connector-curvature="0" />
    <path
       transform="matrix(0,0.67970367,-0.69882934,0,585.10581,898.19032)"
       sodipodi:type="star"
       style="fill:#000000;stroke:#010000;stroke-width:1;stroke-linejoin:round;stroke-miterlimit:4;stroke-opacity:1;stroke-dasharray:none"
       id="path3026-3-7-4-4"
       sodipodi:sides="3"
       sodipodi:cx="-410"
       sodipodi:cy="353.79074"
       sodipodi:r1="14.285714"
       sodipodi:r2="6.964036"
       sodipodi:arg1="1.5707963"
       sodipodi:arg2="2.654265"
       inkscape:flatsided="false"
       inkscape:rounded="0"
       inkscape:randomized="0"
       d="m -410,368.07646 -6.15333,-11.0247 -6.21846,-10.40388 12.62433,0.18341 12.11925,-0.18341 -6.47099,10.84129 z"
       inkscape:transform-center-x="2.4958189"
       inkscape:transform-center-y="-4.3697329e-05" />
    <text
       xml:space="preserve"
       style="font-size:10.65778351px;font-style:normal;font-weight:normal;line-height:125%;letter-spacing:0px;word-spacing:0px;fill:#000000;fill-opacity:1;stroke:none;font-family:Sans"
       x="468.18576"
       y="593.41101"
       id="text3178-5-7-0-6"
       sodipodi:linespacing="125%"
       transform="scale(0.92531607,1.0807118)"><tspan
         sodipodi:role="line"
         id="tspan3180-0-2-6-6"
         x="468.18576"
         y="593.41101">Yes</tspan></text>
    <path
       style="fill:none;stroke:#000000;stroke-width:1px;stroke-linecap:butt;stroke-linejoin:miter;stroke-opacity:1"
       d="m 682.85714,648.96932 36.78572,0 L 720,413.07647 l -153.57143,-0.71429 0,37.85715"
       id="path4409"
       inkscape:connector-curvature="0" />
    <text
       xml:space="preserve"
       style="font-size:10.65778351px;font-style:normal;font-weight:normal;line-height:125%;letter-spacing:0px;word-spacing:0px;fill:#000000;fill-opacity:1;stroke:none;font-family:Sans"
       x="738.21301"
       y="592.90985"
       id="text3178-5-7-9-3"
       sodipodi:linespacing="125%"
       transform="scale(0.92531607,1.0807118)"><tspan
         sodipodi:role="line"
         id="tspan3180-0-2-4-9"
         x="738.21301"
         y="592.90985">No</tspan></text>
    <text
       xml:space="preserve"
       style="font-size:17.76297379px;font-style:normal;font-weight:bold;line-height:125%;letter-spacing:0px;word-spacing:0px;fill:#000000;fill-opacity:1;stroke:none;font-family:Sans;-inkscape-font-specification:Sans Bold"
       x="310.13074"
       y="809.33777"
       id="text3111-9"
       sodipodi:linespacing="125%"
       transform="scale(0.92531607,1.0807118)"><tspan
         sodipodi:role="line"
         id="tspan3113-5"
         x="310.13074"
         y="809.33777">sEndOfConv</tspan></text>
  </g>
</svg>
