xpm_cdc.sv,systemverilog,xil_defaultlib,../../../../../../../../../../../../../opt/Xilinx/Vivado/2016.4/data/ip/xpm/xpm_cdc/hdl/xpm_cdc.sv,
xpm_memory.sv,systemverilog,xil_defaultlib,../../../../../../../../../../../../../opt/Xilinx/Vivado/2016.4/data/ip/xpm/xpm_memory/hdl/xpm_memory.sv,
xpm_VCOMP.vhd,vhdl,xpm,../../../../../../../../../../../../../opt/Xilinx/Vivado/2016.4/data/ip/xpm/xpm_VCOMP.vhd,
vc707_pcie_x8_gen2_core_top.vhd,vhdl,xil_defaultlib,../../../../../../src_pcie/ip/vc707_pcie_x8_gen2/source/vc707_pcie_x8_gen2_core_top.vhd,
vc707_pcie_x8_gen2_pipe_clock.v,verilog,xil_defaultlib,../../../../../../src_pcie/ip/vc707_pcie_x8_gen2/source/vc707_pcie_x8_gen2_pipe_clock.v,
vc707_pcie_x8_gen2_pipe_drp.v,verilog,xil_defaultlib,../../../../../../src_pcie/ip/vc707_pcie_x8_gen2/source/vc707_pcie_x8_gen2_pipe_drp.v,
vc707_pcie_x8_gen2_pipe_eq.v,verilog,xil_defaultlib,../../../../../../src_pcie/ip/vc707_pcie_x8_gen2/source/vc707_pcie_x8_gen2_pipe_eq.v,
vc707_pcie_x8_gen2_pipe_rate.v,verilog,xil_defaultlib,../../../../../../src_pcie/ip/vc707_pcie_x8_gen2/source/vc707_pcie_x8_gen2_pipe_rate.v,
vc707_pcie_x8_gen2_pipe_reset.v,verilog,xil_defaultlib,../../../../../../src_pcie/ip/vc707_pcie_x8_gen2/source/vc707_pcie_x8_gen2_pipe_reset.v,
vc707_pcie_x8_gen2_pipe_sync.v,verilog,xil_defaultlib,../../../../../../src_pcie/ip/vc707_pcie_x8_gen2/source/vc707_pcie_x8_gen2_pipe_sync.v,
vc707_pcie_x8_gen2_gtp_pipe_rate.v,verilog,xil_defaultlib,../../../../../../src_pcie/ip/vc707_pcie_x8_gen2/source/vc707_pcie_x8_gen2_gtp_pipe_rate.v,
vc707_pcie_x8_gen2_gtp_pipe_drp.v,verilog,xil_defaultlib,../../../../../../src_pcie/ip/vc707_pcie_x8_gen2/source/vc707_pcie_x8_gen2_gtp_pipe_drp.v,
vc707_pcie_x8_gen2_gtp_pipe_reset.v,verilog,xil_defaultlib,../../../../../../src_pcie/ip/vc707_pcie_x8_gen2/source/vc707_pcie_x8_gen2_gtp_pipe_reset.v,
vc707_pcie_x8_gen2_pipe_user.v,verilog,xil_defaultlib,../../../../../../src_pcie/ip/vc707_pcie_x8_gen2/source/vc707_pcie_x8_gen2_pipe_user.v,
vc707_pcie_x8_gen2_pipe_wrapper.v,verilog,xil_defaultlib,../../../../../../src_pcie/ip/vc707_pcie_x8_gen2/source/vc707_pcie_x8_gen2_pipe_wrapper.v,
vc707_pcie_x8_gen2_qpll_drp.v,verilog,xil_defaultlib,../../../../../../src_pcie/ip/vc707_pcie_x8_gen2/source/vc707_pcie_x8_gen2_qpll_drp.v,
vc707_pcie_x8_gen2_qpll_reset.v,verilog,xil_defaultlib,../../../../../../src_pcie/ip/vc707_pcie_x8_gen2/source/vc707_pcie_x8_gen2_qpll_reset.v,
vc707_pcie_x8_gen2_qpll_wrapper.v,verilog,xil_defaultlib,../../../../../../src_pcie/ip/vc707_pcie_x8_gen2/source/vc707_pcie_x8_gen2_qpll_wrapper.v,
vc707_pcie_x8_gen2_rxeq_scan.v,verilog,xil_defaultlib,../../../../../../src_pcie/ip/vc707_pcie_x8_gen2/source/vc707_pcie_x8_gen2_rxeq_scan.v,
vc707_pcie_x8_gen2_axi_basic_rx_null_gen.vhd,vhdl,xil_defaultlib,../../../../../../src_pcie/ip/vc707_pcie_x8_gen2/source/vc707_pcie_x8_gen2_axi_basic_rx_null_gen.vhd,
vc707_pcie_x8_gen2_axi_basic_rx_pipeline.vhd,vhdl,xil_defaultlib,../../../../../../src_pcie/ip/vc707_pcie_x8_gen2/source/vc707_pcie_x8_gen2_axi_basic_rx_pipeline.vhd,
vc707_pcie_x8_gen2_axi_basic_rx.vhd,vhdl,xil_defaultlib,../../../../../../src_pcie/ip/vc707_pcie_x8_gen2/source/vc707_pcie_x8_gen2_axi_basic_rx.vhd,
vc707_pcie_x8_gen2_axi_basic_top.vhd,vhdl,xil_defaultlib,../../../../../../src_pcie/ip/vc707_pcie_x8_gen2/source/vc707_pcie_x8_gen2_axi_basic_top.vhd,
vc707_pcie_x8_gen2_axi_basic_tx_pipeline.vhd,vhdl,xil_defaultlib,../../../../../../src_pcie/ip/vc707_pcie_x8_gen2/source/vc707_pcie_x8_gen2_axi_basic_tx_pipeline.vhd,
vc707_pcie_x8_gen2_axi_basic_tx_thrtl_ctl.vhd,vhdl,xil_defaultlib,../../../../../../src_pcie/ip/vc707_pcie_x8_gen2/source/vc707_pcie_x8_gen2_axi_basic_tx_thrtl_ctl.vhd,
vc707_pcie_x8_gen2_axi_basic_tx.vhd,vhdl,xil_defaultlib,../../../../../../src_pcie/ip/vc707_pcie_x8_gen2/source/vc707_pcie_x8_gen2_axi_basic_tx.vhd,
vc707_pcie_x8_gen2_pcie_7x.vhd,vhdl,xil_defaultlib,../../../../../../src_pcie/ip/vc707_pcie_x8_gen2/source/vc707_pcie_x8_gen2_pcie_7x.vhd,
vc707_pcie_x8_gen2_pcie_bram_7x.vhd,vhdl,xil_defaultlib,../../../../../../src_pcie/ip/vc707_pcie_x8_gen2/source/vc707_pcie_x8_gen2_pcie_bram_7x.vhd,
vc707_pcie_x8_gen2_pcie_bram_top_7x.vhd,vhdl,xil_defaultlib,../../../../../../src_pcie/ip/vc707_pcie_x8_gen2/source/vc707_pcie_x8_gen2_pcie_bram_top_7x.vhd,
vc707_pcie_x8_gen2_pcie_brams_7x.vhd,vhdl,xil_defaultlib,../../../../../../src_pcie/ip/vc707_pcie_x8_gen2/source/vc707_pcie_x8_gen2_pcie_brams_7x.vhd,
vc707_pcie_x8_gen2_pcie_pipe_lane.vhd,vhdl,xil_defaultlib,../../../../../../src_pcie/ip/vc707_pcie_x8_gen2/source/vc707_pcie_x8_gen2_pcie_pipe_lane.vhd,
vc707_pcie_x8_gen2_pcie_pipe_misc.vhd,vhdl,xil_defaultlib,../../../../../../src_pcie/ip/vc707_pcie_x8_gen2/source/vc707_pcie_x8_gen2_pcie_pipe_misc.vhd,
vc707_pcie_x8_gen2_pcie_pipe_pipeline.vhd,vhdl,xil_defaultlib,../../../../../../src_pcie/ip/vc707_pcie_x8_gen2/source/vc707_pcie_x8_gen2_pcie_pipe_pipeline.vhd,
vc707_pcie_x8_gen2_gt_rx_valid_filter_7x.vhd,vhdl,xil_defaultlib,../../../../../../src_pcie/ip/vc707_pcie_x8_gen2/source/vc707_pcie_x8_gen2_gt_rx_valid_filter_7x.vhd,
vc707_pcie_x8_gen2_gt_top.vhd,vhdl,xil_defaultlib,../../../../../../src_pcie/ip/vc707_pcie_x8_gen2/source/vc707_pcie_x8_gen2_gt_top.vhd,
vc707_pcie_x8_gen2_gt_wrapper.v,verilog,xil_defaultlib,../../../../../../src_pcie/ip/vc707_pcie_x8_gen2/source/vc707_pcie_x8_gen2_gt_wrapper.v,
vc707_pcie_x8_gen2_gt_common.v,verilog,xil_defaultlib,../../../../../../src_pcie/ip/vc707_pcie_x8_gen2/source/vc707_pcie_x8_gen2_gt_common.v,
vc707_pcie_x8_gen2_gtp_cpllpd_ovrd.v,verilog,xil_defaultlib,../../../../../../src_pcie/ip/vc707_pcie_x8_gen2/source/vc707_pcie_x8_gen2_gtp_cpllpd_ovrd.v,
vc707_pcie_x8_gen2_gtx_cpllpd_ovrd.v,verilog,xil_defaultlib,../../../../../../src_pcie/ip/vc707_pcie_x8_gen2/source/vc707_pcie_x8_gen2_gtx_cpllpd_ovrd.v,
vc707_pcie_x8_gen2_pcie_top.vhd,vhdl,xil_defaultlib,../../../../../../src_pcie/ip/vc707_pcie_x8_gen2/source/vc707_pcie_x8_gen2_pcie_top.vhd,
vc707_pcie_x8_gen2_pcie2_top.vhd,vhdl,xil_defaultlib,../../../../../../src_pcie/ip/vc707_pcie_x8_gen2/source/vc707_pcie_x8_gen2_pcie2_top.vhd,
vc707_pcie_x8_gen2.vhd,vhdl,xil_defaultlib,../../../../../../src_pcie/ip/vc707_pcie_x8_gen2/sim/vc707_pcie_x8_gen2.vhd,
glbl.v,Verilog,xil_defaultlib,glbl.v
