xpm_cdc.sv,systemverilog,xil_defaultlib,../../../../../../../../../../../../../../opt/Xilinx/Vivado/2016.4/data/ip/xpm/xpm_cdc/hdl/xpm_cdc.sv,
xpm_memory.sv,systemverilog,xil_defaultlib,../../../../../../../../../../../../../../opt/Xilinx/Vivado/2016.4/data/ip/xpm/xpm_memory/hdl/xpm_memory.sv,
xpm_VCOMP.vhd,vhdl,xpm,../../../../../../../../../../../../../../opt/Xilinx/Vivado/2016.4/data/ip/xpm/xpm_VCOMP.vhd,
fifo_generator_vlog_beh.v,verilog,fifo_generator_v13_1_3,../../../ipstatic/simulation/fifo_generator_vlog_beh.v,
fifo_generator_v13_1_rfs.vhd,vhdl,fifo_generator_v13_1_3,../../../ipstatic/hdl/fifo_generator_v13_1_rfs.vhd,
fifo_generator_v13_1_rfs.v,verilog,fifo_generator_v13_1_3,../../../ipstatic/hdl/fifo_generator_v13_1_rfs.v,
fifo_40b.v,verilog,xil_defaultlib,../../../../overlay_pcie.srcs/sources_1/ip/fifo_40b/sim/fifo_40b.v,
glbl.v,Verilog,xil_defaultlib,glbl.v
